Assignment3
…
IDF matrices for all the categories

low1000_tf_idf <-  low1000_tidy %>%
                bind_tf_idf(term, document, count) %>%  
                arrange(desc(tf_idf)) 
low1000_tf_idf

## # A tibble: 10,562 x 6
##    term      document count    tf   idf tf_idf
##    <chr>     <chr>    <dbl> <dbl> <dbl>  <dbl>
##  1 gjup      803       1.00 1.00   6.90   6.90
##  2 check     841       1.00 1.00   5.11   5.11
##  3 debating  243       1.00 0.500  6.90   3.45
##  4 movement  282       1.00 0.500  5.52   2.76
##  5 gamer     326       1.00 0.500  5.29   2.65
##  6 woman     802       2.00 0.500  5.29   2.65
##  7 dongle    134       1.00 0.333  6.90   2.30
##  8 beach     325       2.00 0.333  6.21   2.07
##  9 behind    555       1.00 0.333  6.21   2.07
## 10 wonderful 555       1.00 0.333  6.21   2.07
## # ... with 10,552 more rows

top1000_tf_idf <-  top1000_tidy %>%
                bind_tf_idf(term, document, count) %>%  
                arrange(desc(tf_idf)) 
top1000_tf_idf

## # A tibble: 10,220 x 6
##    term    document count    tf   idf tf_idf
##    <chr>   <chr>    <dbl> <dbl> <dbl>  <dbl>
##  1 info    128       1.00 0.500  6.91   3.45
##  2 ninja   814       1.00 0.500  6.91   3.45
##  3 rock    814       1.00 0.500  6.91   3.45
##  4 fish    478       1.00 0.500  5.81   2.90
##  5 may     478       1.00 0.500  5.52   2.76
##  6 extreme 645       1.00 0.500  5.30   2.65
##  7 day     645       1.00 0.500  4.71   2.35
##  8 animals 889       1.00 0.500  4.71   2.35
##  9 barnes  20        1.00 0.333  6.91   2.30
## 10 store   177       1.00 0.333  6.91   2.30
## # ... with 10,210 more rows
…
